{
  "type": "minecraft:smithing",
  "base": {
    "item": "quarries:diamond_drill"
  },
  "addition": {
    "item": "minecraft:netherite_block"
  },
  "result": {
    "item": "quarries:netherite_drill",
    "count": 1
  }
}